/F_
0.2 1 0 0.5
/PSI_
1 1
/GAM_
1 0 0 1
/H_
1 0
/r_
0
/R_
0.1
/q_
0 0
/Q_
0.1 0 0 0.1
/x_
0 0
/P_
0.1 0 0 0.1
/t_
50
/u_
5 5 5 5 5 5 5 5 5 5 5 5 5 5 5 5 5 5 5 5 5 5 5 5 5 5 5 5 5 5 5 5 5 5 5 5 5 5 5 5 5 5 5 5 5 5 5 5 5 5 5 5 5 5 5 5 5 5 5 5 5 5 5 5 5 5 5 5 5 5 5 5 5 5 5 5 5 5 5 5 5 5 5 5 5 5 5 5 5 5 5 5 5 5 5 5 5 5 5 5 5 5 5 5 5 5 5